{
  "definitions": {
    "Retention": {
      "required": [
        "id"
      ],
      "properties": {
        "id": {
          "title": "Retention ID",
          "description": "The identifier for this retention.",
          "type": [
            "string",
            "integer"
          ],
          "minLength": 1
        }
      }
    },
    "Transaction": {
      "properties": {
        "sourceSystem": {
          "title": "Source System",
          "description": "The system from where this payment comes. It can be SICP or SIAF",
          "type": [
            "string",
            "null"
          ]
        },
        "financialCode": {
          "title": "Finantial Code",
          "description": "The financial code that approves this payment.",
          "type": [
            "string",
            "null"
          ]
        }
      }
    }
  }
}
